%YAML 1.1
%TAG !u! tag:unity3d.com,2011:
--- !u!114 &11400000
MonoBehaviour:
  m_ObjectHideFlags: 0
  m_CorrespondingSourceObject: {fileID: 0}
  m_PrefabInstance: {fileID: 0}
  m_PrefabAsset: {fileID: 0}
  m_GameObject: {fileID: 0}
  m_Enabled: 1
  m_EditorHideFlags: 0
  m_Script: {fileID: 11500000, guid: 1c91419f760863947a777bb7a64464c4, type: 3}
  m_Name: Better Small Gun
  m_EditorClassIdentifier: 
  id: 2
  description: bsg description
  model:
    m_AssetGUID: ba98fa7b3c241324b816cbb98ee32eeb
    m_SubObjectName: 
    m_SubObjectType: 
