%YAML 1.1
%TAG !u! tag:unity3d.com,2011:
--- !u!114 &11400000
MonoBehaviour:
  m_ObjectHideFlags: 0
  m_CorrespondingSourceObject: {fileID: 0}
  m_PrefabInstance: {fileID: 0}
  m_PrefabAsset: {fileID: 0}
  m_GameObject: {fileID: 0}
  m_Enabled: 1
  m_EditorHideFlags: 0
  m_Script: {fileID: 11500000, guid: bbb281ee3bf0b054c82ac2347e9e782c, type: 3}
  m_Name: Jsons
  m_EditorClassIdentifier: 
  m_GroupName: Jsons
  m_Data:
    m_SerializedData: []
  m_GUID: 47fbf393d016f564d9ed7a8645ebc01a
  m_SerializeEntries:
  - m_GUID: a93dc838cc0d3aa4aa3b334092c7fadd
    m_Address: guns-catalog-response
    m_ReadOnly: 0
    m_SerializedLabels: []
    m_MainAsset: {fileID: 4900000, guid: a93dc838cc0d3aa4aa3b334092c7fadd, type: 3}
    m_TargetAsset: {fileID: 4900000, guid: a93dc838cc0d3aa4aa3b334092c7fadd, type: 3}
  m_ReadOnly: 0
  m_Settings: {fileID: 11400000, guid: a736d3d3c40238647a86ae37f4a198b7, type: 2}
  m_SchemaSet:
    m_Schemas:
    - {fileID: 11400000, guid: 5dfd71f68d40a1f4b91d71bcd24d3ed9, type: 2}
    - {fileID: 11400000, guid: ea9fe21a3f39e304986b0139ead6ef97, type: 2}
